{
  "android_play_store_link": "",
  "ios_app_store_link": "",
  "sticker_packs": [
    {
      "identifier": "1",
      "name": "kek",
      "publisher": "Kratos",
      "tray_image_file": "tray.png",
      "publisher_email":"",
      "publisher_website": "https://gitlab.com/leviathanaxeislit/stickers",
      "privacy_policy_website": "",
      "license_agreement_website": "",
      "stickers": [
        {
          "image_file": "1.webp",
          "emojis": ["☕","🙂"]
        },
        {
          "image_file": "2.webp",
          "emojis": ["😄","😀"]
        },
        {
          "image_file": "3.webp",
          "emojis": ["😆","😂"]
        },
        {
          "image_file": "4.webp",
          "emojis": ["😩","😰"]
        },
        {
          "image_file": "5.webp",
          "emojis": ["😭","💧"]
        },
        {
          "image_file": "6.webp",
          "emojis": ["😍","♥"]
        },
        {
          "image_file": "7.webp",
          "emojis": ["💔","👎"]
        },
        {
          "image_file": "8.webp",
          "emojis": ["😍","💑"]
        },
        {
          "image_file": "9.webp",
          "emojis": ["😘","🍪"]
        },
        {
          "image_file": "10.webp",
          "emojis": ["🤔","😐"]
        },
        {
          "image_file": "11.webp",
          "emojis": ["😱","😵"]
        },
        {
          "image_file": "12.webp",
          "emojis": ["😡","😠"]
        },
        {
          "image_file": "13.webp",
          "emojis": ["❓","🤔"]
        },
        {
          "image_file": "14.webp",
          "emojis": ["🌈","😜"]
        },
        {
          "image_file": "15.webp",
          "emojis": ["💻","😩"]
        },
        {
          "image_file": "16.webp",
          "emojis": ["😡","😤"]
        },
        {
          "image_file": "17.webp",
          "emojis": ["😩","😨"]
        },
        {
          "image_file": "18.webp",
          "emojis": ["💻","🌃"]
        },
        {
          "image_file": "19.webp",
          "emojis": ["🎉","✨"]
        },
        {
          "image_file": "20.webp",
          "emojis": ["🤮","👎"]
        },
        {
          "image_file": "21.webp",
          "emojis": ["🖐","🙋"]
        },
        {
          "image_file": "22.webp",
          "emojis": ["🖐","👋"]
        },
        {
          "image_file": "23.webp",
          "emojis": ["🍵","😌"]
        },
        {
          "image_file": "24.webp",
          "emojis": ["📱","😦"]
        },
        {
          "image_file": "25.webp",
          "emojis": ["🔋","😵"]
        },
        {
          "image_file": "26.webp",
          "emojis": []
        },
        {
          "image_file": "27.webp"
          "emojis": []
        },
        {
          "image_file": "28.webp"
          "emojis": []
        },
        {
          "image_file": "29.webp"
          "emojis": []
        },
        {
          "image_file": "30.webp"
          "emojis": []
        }

      ]
    }
  ]
}
